k,GMM,Kmeans
2,0.46800656275635766,0.46800656275635766
3,0.46800656275635766,0.46800656275635766
4,0.46882690730106646,0.46800656275635766
5,0.4753896636587367,0.46800656275635766
7,0.48195242001640687,0.47333880229696473
10,0.4774405250205086,0.47990155865463496
15,0.485233798195242,0.49876948318293685
20,0.4803117309269893,0.48195242001640687
25,0.4917965545529122,0.5250205086136177
30,0.5012305168170632,0.5069729286300246
35,0.5258408531583265,0.5225594749794914
40,0.5188679245283019,0.5262510254306809
50,0.5229696472518458,0.5438884331419196
60,0.5209187858900738,0.5352748154224775
