k,GMM,Kmeans
2,0.1811473675073877,0.3938847719546476
3,0.07490204681329396,0.2513525874750683
4,0.07989334294491371,0.22290210719376827
5,0.05787621977400283,0.14804079209806661
7,0.1152890346555301,0.13243001717256245
10,0.022817584608763805,0.15835989313920418
15,0.049979064147407666,0.1566619203952326
20,0.09553812053824969,0.15685211416190428
25,0.09488644114180673,0.13379473161185304
30,0.043243806736968496,0.14521757357956272
35,0.09116655969894553,0.1592935293385705
40,0.04814679479565029,0.14618325513174718
50,0.07014918017248589,0.15450454561588042
60,0.1066337044961812,0.14867920784405256
